<?xml version="1.0" encoding="UTF-8"?>
<svg width="36px" height="24px" viewBox="0 0 36 24" version="1.1" xmlns="http://www.w3.org/2000/svg" xmlns:xlink="http://www.w3.org/1999/xlink">
    <!-- Generator: Sketch 49.3 (51167) - http://www.bohemiancoding.com/sketch -->
    <title>English</title>
    <desc>Created with Sketch.</desc>
    <defs></defs>
    <g id="Welcome" stroke="none" stroke-width="1" fill="none" fill-rule="evenodd">
        <g id="00_LANG_Desktop-HD1920" transform="translate(-598.000000, -494.000000)">
            <g id="English" transform="translate(598.000000, 494.000000)">
                <polygon id="Fill-1" fill="#FEFEFE" points="0 23.85 35.82 23.85 35.82 0 0 0"></polygon>
                <polygon id="Fill-2" fill="#2D3380" points="4.562244 3.59999995e-05 14.732244 6.961356 14.732244 3.59999995e-05"></polygon>
                <polygon id="Fill-3" fill="#2D3380" points="21.087864 3.59999995e-05 21.087864 6.961356 31.257684 3.59999995e-05"></polygon>
                <polygon id="Fill-4" fill="#2D3380" points="21.087864 23.85 31.257684 23.85 21.087864 16.8885"></polygon>
                <polygon id="Fill-5" fill="#2D3380" points="4.562244 23.85 14.732244 23.85 14.732244 16.8885"></polygon>
                <polygon id="Fill-6" fill="#2D3380" points="28.322298 7.816374 35.820018 7.816374 35.820018 2.866554"></polygon>
                <polygon id="Fill-7" fill="#2D3380" points="0 7.816374 7.4979 7.816374 0 2.866554"></polygon>
                <polygon id="Fill-8" fill="#2D3380" points="0 16.0335 0 20.98332 7.4979 16.0335"></polygon>
                <polygon id="Fill-9" fill="#2D3380" points="28.322298 16.0335 35.820018 20.98332 35.820018 16.0335"></polygon>
                <polygon id="Fill-10" fill="#E41E25" points="0 3.59999995e-05 0 1.779336 9.14472 7.816356 11.83968 7.816356"></polygon>
                <polygon id="Fill-11" fill="#E41E25" points="23.980374 16.033662 35.820054 23.849982 35.820054 22.070862 26.675334 16.033662"></polygon>
                <polygon id="Fill-12" fill="#E41E25" points="16.05015 3.59999995e-05 16.05015 9.571536 9e-05 9.571536 9e-05 14.278536 16.05015 14.278536 16.05015 23.850036 19.77003 23.850036 19.77003 14.278536 35.81991 14.278536 35.81991 9.571536 19.77003 9.571536 19.77003 3.59999995e-05"></polygon>
                <polygon id="Fill-13" fill="#E41E25" points="0 3.59999995e-05 0 1.779336 9.14472 7.816356 11.83968 7.816356"></polygon>
                <polygon id="Fill-14" fill="#E41E25" points="23.980374 16.0335 35.820054 23.85 35.820054 22.07088 26.675334 16.0335"></polygon>
                <polygon id="Fill-15" fill="#E41E25" points="32.92731 3.59999995e-05 21.08781 7.816356 23.98041 7.816356 35.81991 3.59999995e-05"></polygon>
                <polygon id="Fill-16" fill="#E41E25" points="11.839608 16.0335 -7.2e-05 23.85 2.892708 23.85 14.732208 16.0335"></polygon>
            </g>
        </g>
    </g>
</svg>