<?xml version="1.0" encoding="UTF-8"?>
<svg width="18px" height="18px" viewBox="0 0 18 18" version="1.1" xmlns="http://www.w3.org/2000/svg" xmlns:xlink="http://www.w3.org/1999/xlink">
    <!-- Generator: Sketch 49.3 (51167) - http://www.bohemiancoding.com/sketch -->
    <title>Header_English</title>
    <desc>Created with Sketch.</desc>
    <defs>
        <circle id="path-1" cx="9" cy="9" r="9"></circle>
    </defs>
    <g id="Symbols" stroke="none" stroke-width="1" fill="none" fill-rule="evenodd">
        <g id="Header_D" transform="translate(-946.000000, -41.000000)">
            <g id="Header_English" transform="translate(946.000000, 41.000000)">
                <mask id="mask-2" fill="white">
                    <use xlink:href="#path-1"></use>
                </mask>
                <use id="Mask" fill="#D8D8D8" xlink:href="#path-1"></use>
                <g id="Page-1" mask="url(#mask-2)">
                    <g transform="translate(-4.500000, 0.000000)">
                        <polygon id="Fill-1" fill="#FEFEFE" fill-rule="evenodd" points="0 18 26.4705882 18 26.4705882 0 0 0"></polygon>
                        <polygon id="Fill-2" fill="#2D3380" fill-rule="evenodd" points="3.17647059 0 10.5882353 5.29411765 10.5882353 0"></polygon>
                        <polygon id="Fill-3" fill="#2D3380" fill-rule="evenodd" points="15.8823529 0 15.8823529 5.29411765 23.2941176 0"></polygon>
                        <polygon id="Fill-4" fill="#2D3380" fill-rule="evenodd" points="15.8823529 18 23.2941176 18 15.8823529 12.7058824"></polygon>
                        <polygon id="Fill-5" fill="#2D3380" fill-rule="evenodd" points="3.17647059 18 10.5882353 18 10.5882353 12.7058824"></polygon>
                        <polygon id="Fill-6" fill="#2D3380" fill-rule="evenodd" points="21.1764706 6.35294118 26.4705882 6.35294118 26.4705882 2.11764706"></polygon>
                        <polygon id="Fill-7" fill="#2D3380" fill-rule="evenodd" points="0 6.35294118 5.29411765 6.35294118 0 2.11764706"></polygon>
                        <polygon id="Fill-8" fill="#2D3380" fill-rule="evenodd" points="0 11.6470588 0 15.8823529 5.29411765 11.6470588"></polygon>
                        <polygon id="Fill-9" fill="#2D3380" fill-rule="evenodd" points="21.1764706 11.6470588 26.4705882 15.8823529 26.4705882 11.6470588"></polygon>
                        <polygon id="Fill-10" fill="#E41E25" fill-rule="evenodd" points="0 0 0 1.44617777 6.54250433 6.35294118 8.47058824 6.35294118"></polygon>
                        <polygon id="Fill-11" fill="#E41E25" fill-rule="evenodd" points="18 11.6470588 26.4705882 18 26.4705882 16.5539685 19.9280839 11.6470588"></polygon>
                        <polygon id="Fill-12" fill="#E41E25" fill-rule="evenodd" points="11.8608784 0 11.8608784 7.22377358 0 7.22377358 0 10.7762264 11.8608784 10.7762264 11.8608784 18 14.6098429 18 14.6098429 10.7762264 26.4705882 10.7762264 26.4705882 7.22377358 14.6098429 7.22377358 14.6098429 0"></polygon>
                        <polygon id="Fill-13" fill="#E41E25" fill-rule="evenodd" points="0 0 0 1.44617777 6.54250433 6.35294118 8.47058824 6.35294118"></polygon>
                        <polygon id="Fill-14" fill="#E41E25" fill-rule="evenodd" points="18 11.6470588 26.4705882 18 26.4705882 16.5540018 19.9280839 11.6470588"></polygon>
                        <polygon id="Fill-15" fill="#E41E25" fill-rule="evenodd" points="24.3916226 0 15.8823529 6.35294118 17.9613186 6.35294118 26.4705882 0"></polygon>
                        <polygon id="Fill-16" fill="#E41E25" fill-rule="evenodd" points="8.50929507 11.6470588 0 18 2.07906959 18 10.5882353 11.6470588"></polygon>
                        <polygon id="Fill-17" fill="none" points="0 18 26.4705882 18 26.4705882 0 0 0"></polygon>
                    </g>
                </g>
            </g>
        </g>
    </g>
</svg>