<?xml version="1.0" encoding="UTF-8"?>
<svg width="36px" height="24px" viewBox="0 0 36 24" version="1.1" xmlns="http://www.w3.org/2000/svg" xmlns:xlink="http://www.w3.org/1999/xlink">
    <!-- Generator: Sketch 49.3 (51167) - http://www.bohemiancoding.com/sketch -->
    <title>Nederlands</title>
    <desc>Created with Sketch.</desc>
    <defs></defs>
    <g id="Welcome" stroke="none" stroke-width="1" fill="none" fill-rule="evenodd">
        <g id="00_LANG_Desktop-HD1920" transform="translate(-1058.000000, -546.000000)">
            <g id="Nederlands" transform="translate(1058.000000, 546.000000)">
                <polygon id="Fill-1" fill="#E52B3F" points="0 8 36 8 36 0 0 0"></polygon>
                <polygon id="Fill-2" fill="#FEFEFE" points="0 16 36 16 36 8 0 8"></polygon>
                <polygon id="Fill-3" fill="#293882" points="0 24 36 24 36 16 0 16"></polygon>
            </g>
        </g>
    </g>
</svg>