<?xml version="1.0" encoding="UTF-8"?>
<svg width="22px" height="22px" viewBox="0 0 22 22" version="1.1" xmlns="http://www.w3.org/2000/svg" xmlns:xlink="http://www.w3.org/1999/xlink">
    <!-- Generator: Sketch 50.2 (55047) - http://www.bohemiancoding.com/sketch -->
    <title>dash</title>
    <desc>Created with Sketch.</desc>
    <defs></defs>
    <g id="Page-1" stroke="none" stroke-width="1" fill="none" fill-rule="evenodd">
        <g id="UserPanel-Dashboard" transform="translate(-737.000000, -910.000000)" fill-rule="nonzero">
            <g id="Group-28" transform="translate(710.000000, 651.000000)">
                <g id="Group-22" transform="translate(27.000000, 23.000000)">
                    <g id="Other-Rates" transform="translate(0.000000, 236.000000)">
                        <g id="Dash">
                            <g id="Group-13">
                                <g id="dash">
                                    <circle id="Oval" fill="#377BBF" cx="11.001107" cy="10.9994551" r="10.8435556"></circle>
                                    <path d="M4.73733333,14.6666667 C4.94266667,14.0702222 5.126,13.5153333 5.33133333,12.9555556 C5.37439529,12.8948299 5.44278261,12.8570369 5.51711111,12.8528889 C5.85688889,12.8528889 6.19422222,12.8528889 6.534,12.8528889 L13.1682222,12.8528889 C13.2389183,12.8641244 13.3111763,12.8467068 13.3689889,12.8044944 C13.4268014,12.7622821 13.4653958,12.6987599 13.4762222,12.628 C13.8453333,11.5402222 14.2266667,10.45 14.6055556,9.36222222 C14.6251111,9.30111111 14.6373333,9.24977778 14.6666667,9.15688889 L6.62688889,9.15688889 C6.83222222,8.55066667 7.02777778,7.986 7.23311111,7.42133333 C7.26970601,7.37230933 7.32604569,7.34190379 7.38711111,7.33822222 C7.59244444,7.33822222 7.788,7.33822222 7.99333333,7.33822222 C10.714,7.33822222 13.4346667,7.36022222 16.1675556,7.33822222 C16.9791111,7.33822222 17.8395556,7.95422222 17.4924444,9.14711111 C17.248,10.0393333 16.896,10.9022222 16.5977778,11.7748889 C16.4951111,12.0731111 16.3924444,12.3811111 16.2897778,12.6695556 C15.9400352,13.6582405 15.1109024,14.400775 14.0897778,14.6397778 C13.9927642,14.6665401 13.8920302,14.677274 13.7915556,14.6715556 L4.96222222,14.6715556 C4.8872425,14.6755536 4.81206847,14.6739194 4.73733333,14.6666667 Z" id="Shape" fill="#FFFFFF"></path>
                                    <path d="M9.83155556,10.1322222 C9.62622222,10.7066667 9.43066667,11.2517778 9.22533333,11.7748889 C9.21311111,11.8164444 9.13244444,11.8482222 9.08111111,11.8482222 L4.51,11.8482222 C4.4814324,11.8425209 4.4541139,11.831759 4.42933333,11.8164444 C4.62488889,11.2835556 4.80822222,10.758 5.01355556,10.2348889 C5.04567978,10.1781597 5.10283467,10.1400564 5.16755556,10.1322222 L9.83155556,10.1322222 Z" id="Shape" fill="#FFFFFF"></path>
                                </g>
                            </g>
                        </g>
                    </g>
                </g>
            </g>
        </g>
    </g>
</svg>