<?xml version="1.0" encoding="UTF-8"?>
<svg width="22px" height="22px" viewBox="0 0 22 22" version="1.1" xmlns="http://www.w3.org/2000/svg" xmlns:xlink="http://www.w3.org/1999/xlink">
    <!-- Generator: Sketch 50.2 (55047) - http://www.bohemiancoding.com/sketch -->
    <title>dollar-01</title>
    <desc>Created with Sketch.</desc>
    <defs></defs>
    <g id="Page-1" stroke="none" stroke-width="1" fill="none" fill-rule="evenodd">
        <g id="UserPanel-Dashboard" transform="translate(-737.000000, -720.000000)" fill-rule="nonzero">
            <g id="Group-28" transform="translate(710.000000, 651.000000)">
                <g id="Group-22" transform="translate(27.000000, 23.000000)">
                    <g id="DreamTech-Cash" transform="translate(0.000000, 46.000000)">
                        <g id="USD">
                            <g id="Group-13">
                                <g id="dollar-01">
                                    <circle id="Oval" fill="#28A881" cx="11" cy="11" r="10.8484444"></circle>
                                    <path d="M12.9555556,10.3546667 C12.3999616,10.0634666 11.8287229,9.80314499 11.2444444,9.57488889 C10.9029428,9.44455721 10.5818971,9.26592406 10.2911111,9.04444444 C10.0297279,8.86886714 9.89129758,8.5596476 9.93444492,8.24773914 C9.97759225,7.93583068 10.1947684,7.67580336 10.494,7.57777778 C10.6783651,7.50374878 10.8746923,7.46398631 11.0733333,7.46044444 C11.8249883,7.4149042 12.5757527,7.5630371 13.2537778,7.89066667 C13.596,8.05688889 13.7108889,8.00311111 13.8257778,7.64622222 C13.9406667,7.28933333 14.0506667,6.88355556 14.1655556,6.50222222 C14.2072057,6.39713606 14.2025547,6.27934972 14.1527482,6.17787485 C14.1029418,6.07639998 14.0126092,6.00066839 13.904,5.96933333 C13.4658583,5.77334702 13.0040436,5.63529565 12.5302222,5.55866667 C11.9068889,5.46088889 11.9068889,5.45844444 11.9044444,4.82533333 C11.9044444,3.94288889 11.9044444,3.94288889 11.0146667,3.94288889 C10.8875556,3.94288889 10.7702222,3.94288889 10.6308889,3.94288889 C10.2177778,3.95511111 10.142,4.026 10.142,4.444 C10.142,4.62977778 10.142,4.81555556 10.142,5.00622222 C10.142,5.55866667 10.142,5.55133333 9.60666667,5.73955556 C8.31111111,6.21622222 7.524,7.08888889 7.43844444,8.48711111 C7.36266667,9.72644444 8.01044444,10.5624444 9.02733333,11.176 C9.66611168,11.5111551 10.3249127,11.8066767 11,12.0608889 C11.2631905,12.1675559 11.5100566,12.3107383 11.7333333,12.4862222 C12.0315826,12.701711 12.1861316,13.0645245 12.1348848,13.4288894 C12.083638,13.7932543 11.8350072,14.0993618 11.4888889,14.2242222 C11.0873146,14.3941751 10.6468419,14.4508194 10.2153333,14.388 C9.53956632,14.3132158 8.88287049,14.1169523 8.27688889,13.8086667 C7.91755556,13.6228889 7.81244444,13.6717778 7.69022222,14.0531111 C7.58511111,14.388 7.49222222,14.7253333 7.39933333,15.0626667 C7.27466667,15.5173333 7.32111111,15.6248889 7.75377778,15.8375556 C8.30841343,16.0900242 8.89740513,16.2588959 9.50155556,16.3386667 C9.97333333,16.4144444 9.99044444,16.4364444 9.99044444,16.9253333 C9.99044444,17.1453333 9.99044444,17.3702222 9.99044444,17.5926667 C9.97447958,17.7115664 10.0132755,17.8312935 10.09594,17.9182337 C10.1786045,18.005174 10.2962247,18.0499535 10.4157778,18.04 C10.7433333,18.04 11.0708889,18.04 11.3935556,18.04 C11.5068189,18.0499516 11.6184587,18.0078392 11.6969316,17.9255616 C11.7754045,17.8432839 11.8121879,17.7297768 11.7968889,17.6171111 C11.7968889,17.314 11.8115556,17.0084444 11.7968889,16.7053333 C11.7621372,16.4389752 11.9487911,16.1944696 12.2148889,16.1577778 C12.8870637,15.9809028 13.4860267,15.5958552 13.926,15.0577778 C15.1726667,13.5422222 14.6984444,11.3251111 12.9311111,10.3497778 L12.9555556,10.3546667 Z" id="Shape" fill="#FFFFFF"></path>
                                </g>
                            </g>
                        </g>
                    </g>
                </g>
            </g>
        </g>
    </g>
</svg>