<?xml version="1.0" encoding="UTF-8"?>
<svg width="17px" height="27px" viewBox="0 0 17 27" version="1.1" xmlns="http://www.w3.org/2000/svg" xmlns:xlink="http://www.w3.org/1999/xlink">
    <!-- Generator: Sketch 50.2 (55047) - http://www.bohemiancoding.com/sketch -->
    <title>icon_location</title>
    <desc>Created with Sketch.</desc>
    <defs>
        <linearGradient x1="50%" y1="139.951509%" x2="50%" y2="-28.1654095%" id="linearGradient-1">
            <stop stop-color="#FB531F" offset="0%"></stop>
            <stop stop-color="#ED6C44" offset="100%"></stop>
        </linearGradient>
    </defs>
    <g id="Page-1" stroke="none" stroke-width="1" fill="none" fill-rule="evenodd">
        <g id="ICO-DTCash_protype" transform="translate(-1266.000000, -6539.000000)">
            <g id="ContactUs-Section" transform="translate(0.000000, 6164.000000)">
                <g id="icon_location" transform="translate(1267.000000, 376.000000)">
                    <path d="M15,7.09184686 C15,3.17521325 11.6420455,0 7.5,0 C3.35795455,0 0,3.17521325 0,7.09184686 C0,8.41157508 0.387954545,9.6436223 1.05204545,10.7015969 C1.5975,11.7963202 2.39659091,12.9587383 3.40909091,14.3951597 C6.13636364,18.2634398 6.81818182,22.7764332 7.5,26 C8.18181818,22.7764332 8.86363636,18.2634398 11.5909091,14.3951597 C12.6040909,12.9580936 13.4031818,11.7950307 13.9486364,10.7003075 C14.6120455,9.64233287 15,8.41093037 15,7.09184686" id="Fill-1" fill="url(#linearGradient-1)"></path>
                    <path d="M15,7.09184686 C15,3.17521325 11.6420455,0 7.5,0 C3.35795455,0 0,3.17521325 0,7.09184686 C0,8.41157508 0.387954545,9.6436223 1.05204545,10.7015969 C1.5975,11.7963202 2.39659091,12.9587383 3.40909091,14.3951597 C6.13636364,18.2634398 6.81818182,22.7764332 7.5,26 C8.18181818,22.7764332 8.86363636,18.2634398 11.5909091,14.3951597 C12.6040909,12.9580936 13.4031818,11.7950307 13.9486364,10.7003075 C14.6120455,9.64233287 15,8.41093037 15,7.09184686 Z" id="Stroke-3" stroke="#D0021B" stroke-width="0.5" stroke-linecap="round" stroke-linejoin="round"></path>
                    <path d="M10,7.5 C10,8.880625 8.880625,10 7.5,10 C6.119375,10 5,8.880625 5,7.5 C5,6.119375 6.119375,5 7.5,5 C8.880625,5 10,6.119375 10,7.5" id="Fill-5" fill="#D0021B"></path>
                </g>
            </g>
        </g>
    </g>
</svg>
