<?xml version="1.0" encoding="UTF-8"?>
<svg width="913px" height="1px" viewBox="0 0 913 1" version="1.1" xmlns="http://www.w3.org/2000/svg" xmlns:xlink="http://www.w3.org/1999/xlink">
    <!-- Generator: Sketch 50.2 (55047) - http://www.bohemiancoding.com/sketch -->
    <title>Path 2</title>
    <desc>Created with Sketch.</desc>
    <defs></defs>
    <g id="Page-1" stroke="none" stroke-width="1" fill="none" fill-rule="evenodd" opacity="0.5">
        <g id="ICO-DTCash_protype" transform="translate(-505.000000, -701.000000)" stroke="#98C6F3">
            <g id="Banner">
                <g id="Group-2" transform="translate(458.000000, 466.000000)">
                    <path d="M47,235.5 L960,235.5" id="Path-2"></path>
                </g>
            </g>
        </g>
    </g>
</svg>