<?xml version="1.0" encoding="UTF-8"?>
<svg width="18px" height="18px" viewBox="0 0 18 18" version="1.1" xmlns="http://www.w3.org/2000/svg" xmlns:xlink="http://www.w3.org/1999/xlink">
    <!-- Generator: Sketch 50.2 (55047) - http://www.bohemiancoding.com/sketch -->
    <title>PhoneIcon</title>
    <desc>Created with Sketch.</desc>
    <defs></defs>
    <g id="Page-1" stroke="none" stroke-width="1" fill="none" fill-rule="evenodd">
        <g id="ICO-DTCash_protype" transform="translate(-1232.000000, -6402.000000)" fill="#EFCA73">
            <g id="ContactUs-Section" transform="translate(0.000000, 6164.000000)">
                <g id="CU-SocialMedia" transform="translate(1214.000000, 143.000000)">
                    <path d="M23,95 L31,95 C33.7614237,95 36,97.2385763 36,100 L36,108 C36,110.761424 33.7614237,113 31,113 L23,113 C20.2385763,113 18,110.761424 18,108 L18,100 C18,97.2385763 20.2385763,95 23,95 Z M31.7758183,106.909518 L30.2314742,105.361502 C29.9238695,105.054439 29.4144701,105.063768 29.0961494,105.382925 L28.3181022,106.162562 C28.2689464,106.135409 28.2180668,106.107047 28.1645728,106.076957 C27.6732442,105.804101 27.0007772,105.430119 26.2931456,104.720366 C25.5834167,104.009115 25.2099357,103.334088 24.9368636,102.841329 C24.9080481,102.789125 24.8804393,102.738793 24.8531752,102.690994 L25.3753591,102.168404 L25.6320842,101.910781 C25.9508933,101.591163 25.9596845,101.080753 25.652798,100.772797 L24.108454,99.2246081 C23.8015675,98.9170839 23.2919383,98.9264133 22.9731292,99.2460312 L22.5378801,99.6847715 L22.5497741,99.696606 C22.4038292,99.8832514 22.2818732,100.098518 22.1911174,100.330659 C22.1074576,100.551627 22.0553714,100.762489 22.0315548,100.973782 C21.8276341,102.66816 22.6001653,104.216694 24.6967153,106.318023 C27.5947844,109.222458 29.9302474,109.003044 30.0310011,108.992333 C30.2504356,108.966043 30.4607341,108.913494 30.6744515,108.830306 C30.9040561,108.74041 31.1186928,108.618351 31.3048012,108.472392 L31.3143106,108.480858 L31.7552481,108.048106 C32.0733964,107.728546 32.0825611,107.217964 31.7758183,106.909518 Z" id="PhoneIcon"></path>
                </g>
            </g>
        </g>
    </g>
</svg>
