<?xml version="1.0" encoding="UTF-8"?>
<svg width="15px" height="15px" viewBox="0 0 15 15" version="1.1" xmlns="http://www.w3.org/2000/svg" xmlns:xlink="http://www.w3.org/1999/xlink">
    <!-- Generator: Sketch 50.2 (55047) - http://www.bohemiancoding.com/sketch -->
    <title>facebook</title>
    <desc>Created with Sketch.</desc>
    <defs></defs>
    <g id="Page-1" stroke="none" stroke-width="1" fill="none" fill-rule="evenodd">
        <g id="Thank-you-message" transform="translate(-940.000000, -647.000000)" fill="#F8F9F9" fill-rule="nonzero">
            <g id="Group-16" transform="translate(785.000000, 342.000000)">
                <g id="Group-15" transform="translate(55.000000, 36.000000)">
                    <g id="Social-Media" transform="translate(75.000000, 269.000000)">
                        <g id="facebook" transform="translate(25.000000, 0.000000)">
                            <path d="M7.5,15 C3.35786438,15 0,11.6421356 0,7.5 C0,3.35786438 3.35786438,0 7.5,0 C11.6421356,0 15,3.35786438 15,7.5 C15,11.6421356 11.6421356,15 7.5,15 Z M9.38549503,7.79359335 L9.56264038,6.07214161 L8.04734572,6.07214161 L8.04734572,5.05806802 C8.04734572,4.67770687 8.29869158,4.58839887 8.47744126,4.58839887 L9.567186,4.58839887 L9.567186,2.91587935 L8.06526079,2.90959571 C6.39835645,2.90959571 6.01959963,4.15816963 6.01959963,4.95552426 L6.01959963,6.07053727 L5.05526044,6.07053727 L5.05526044,7.79359335 L6.01959963,7.79359335 L6.01959963,12.6964419 L8.04721202,12.6964419 L8.04721202,7.79359335 L9.38549503,7.79359335 Z" id="Combined-Shape"></path>
                        </g>
                    </g>
                </g>
            </g>
        </g>
    </g>
</svg>